…
#### Selecting Columns

Weather has lots of columns. by setting `select = TRUE` in `check_data3` we drop non-named columns and order to match values. The checks indicate that year is only 2013, and like month is a number but day and hour are integers (as expected)

``` r
weather %<>% check_data3(list(year = c(2013,2013),
                              month = c(1, 12),
                              day = c(1L, 31L),
                              hour = c(0L, 23L),
                              origin = rep("^\\w{3,3}$",2)),
                 select = TRUE)
weather
#> # A tibble: 26,130 × 5
#>     year month   day  hour origin
#>    <dbl> <dbl> <int> <int>  <chr>
#> 1   2013     1     1     0    EWR
#> 2   2013     1     1     1    EWR
#> 3   2013     1     1     2    EWR
#> 4   2013     1     1     3    EWR
#> 5   2013     1     1     4    EWR
#> 6   2013     1     1     6    EWR
#> 7   2013     1     1     7    EWR
#> 8   2013     1     1     8    EWR
#> 9   2013     1     1     9    EWR
#> 10  2013     1     1    10    EWR
#> # ... with 26,120 more rows
```
…
